FinGeek|http://zhaojie.tech
…
 $ manufacturer: chr  "audi" "audi" "audi" "audi" ...
 $ model       : chr  "a4" "a4" "a4" "a4" ...
 $ displ       : num  1.8 1.8 2 2 2.8 2.8 3.1 1.8 1.8 2 ...
 $ year        : int  1999 1999 2008 2008 1999 1999 2008 1999 1999 2008 ...
 $ cyl         : int  4 4 4 4 6 6 6 4 4 4 ...
 $ trans       : chr  "auto(l5)" "manual(m5)" "manual(m6)" "auto(av)" ...
 $ drv         : chr  "f" "f" "f" "f" ...
 $ cty         : int  18 21 20 21 16 18 18 18 16 20 ...
 $ hwy         : int  29 29 31 30 26 26 27 26 25 28 ...
 $ fl          : chr  "p" "p" "p" "p" ...
 $ class       : chr  "compact" "compact" "compact" "compact" ...
> 
> # 列索引
> mydata1[, c(2, 3)]
# A tibble: 234 x 2
   model      displ
   <chr>      <dbl>
 1 a4          1.80
 2 a4          1.80
 3 a4          2.00
 4 a4          2.00
 5 a4          2.80
 6 a4          2.80
 7 a4          3.10
 8 a4 quattro  1.80
 9 a4 quattro  1.80
10 a4 quattro  2.00
# ... with 224 more rows
> mydata1[, c("model", "displ")]
# A tibble: 234 x 2
   model      displ
   <chr>      <dbl>
 1 a4          1.80
 2 a4          1.80
 3 a4          2.00
 4 a4          2.00
 5 a4          2.80
 6 a4          2.80
 7 a4          3.10
 8 a4 quattro  1.80
 9 a4 quattro  1.80
10 a4 quattro  2.00
# ... with 224 more rows
…
